{
    "template_list": [
        {
            "Comment": "Default Log",
            "REAL": {
                "template": "snsana_log-*",
                "settings": {
                    "number_of_shards": 1
                },
                "mappings": {
                    "log": {
                        "_all": {
                            "enabled": true
                        },
                        "properties": {
                            "@timestamp": {
                                "type": "date",
                                "format": "yyyy/MM/dd, HH:mm:ss:SSSZ"
                            },
                            "tag": { "type": "string", "index": "analyzed" },
                            "level": { "type": "string", "index": "analyzed" },
                            "message": { "type": "string", "index": "analyzed" }
                        }
                    }
                }
            }
        },
        {
            "Comment": "Comment log",
            "REAL": {
                "template": "snsana_get-*",
                "settings": {
                    "number_of_shards": 1
                },
                "mappings": {
                    "sns_comment": {
                        "_all": {
                            "enabled": true
                        },
                        "properties": {
                            "@timestamp": {
                                "type": "date",
                                "format": "yyyy/MM/dd, HH:mm:ss:SSSZ"
                            },
                            "message": { "type": "string", "index": "analyzed" },
                            "wordlist": {
                                "properties": {
                                    "word": { "type": "string", "index": "not_analyzed", "doc_values": true },
                                    "tag": { "type": "string", "index": "not_analyzed", "doc_values": true }
                                }
                            }
                        }
                    }
                }
            }
        },
        {
            "Comment": "Systemlog",
            "REAL": {
                "template": "snsana_system-*",
                "settings": {
                    "number_of_shards": 1
                },
                "mappings":{
                    "db_allo_info": {
                        "_all": {
                            "enabled": true
                        },
                        "properties": {
                            "@timestamp": {
                                "type": "date",
                                "format": "yyyy/MM/dd, HH:mm:ss:SSSZ"
                            },
                            "worker_queue": { "type": "integer"},
                            "avail_queue": { "type": "integer"}
                        }
                    }
                }
            }
        }
    ]
}